<mxfile host="Electron" modified="2023-07-27T09:57:32.134Z" agent="Mozilla/5.0 (X11; Linux x86_64) AppleWebKit/537.36 (KHTML, like Gecko) draw.io/21.2.8 Chrome/112.0.5615.165 Electron/24.2.0 Safari/537.36" etag="Zj_tMfmVpBRAaKv8O0v4" version="21.2.8" type="device">
  <diagram name="Page-1" id="Wo1UPOdSa5bxBhlkDCl6">
    <mxGraphModel dx="2261" dy="835" grid="1" gridSize="10" guides="1" tooltips="1" connect="1" arrows="1" fold="1" page="1" pageScale="1" pageWidth="827" pageHeight="1169" math="0" shadow="0">
      <root>
        <mxCell id="0" />
        <mxCell id="1" parent="0" />
        <mxCell id="FalNXXirumsoLyD_bCAX-9" style="edgeStyle=orthogonalEdgeStyle;rounded=0;orthogonalLoop=1;jettySize=auto;html=1;exitX=0.5;exitY=0;exitDx=0;exitDy=0;exitPerimeter=0;startArrow=classic;startFill=1;strokeColor=#FF8000;" parent="1" source="FalNXXirumsoLyD_bCAX-2" edge="1">
          <mxGeometry relative="1" as="geometry">
            <mxPoint x="459" y="92" as="targetPoint" />
          </mxGeometry>
        </mxCell>
        <mxCell id="FalNXXirumsoLyD_bCAX-20" style="edgeStyle=orthogonalEdgeStyle;rounded=0;orthogonalLoop=1;jettySize=auto;html=1;exitX=0.5;exitY=1;exitDx=0;exitDy=0;exitPerimeter=0;strokeColor=#00CC00;startArrow=classic;startFill=1;" parent="1" source="FalNXXirumsoLyD_bCAX-2" edge="1">
          <mxGeometry relative="1" as="geometry">
            <mxPoint x="460" y="422" as="targetPoint" />
          </mxGeometry>
        </mxCell>
        <mxCell id="FalNXXirumsoLyD_bCAX-55" style="edgeStyle=orthogonalEdgeStyle;rounded=0;orthogonalLoop=1;jettySize=auto;html=1;exitX=0;exitY=0.5;exitDx=0;exitDy=0;exitPerimeter=0;startArrow=classic;startFill=1;strokeColor=#D80073;fillColor=#d80073;" parent="1" source="FalNXXirumsoLyD_bCAX-2" target="FalNXXirumsoLyD_bCAX-52" edge="1">
          <mxGeometry relative="1" as="geometry" />
        </mxCell>
        <mxCell id="FalNXXirumsoLyD_bCAX-2" value="" style="sketch=0;points=[[0.5,0,0],[1,0.5,0],[0.5,1,0],[0,0.5,0],[0.145,0.145,0],[0.8555,0.145,0],[0.855,0.8555,0],[0.145,0.855,0]];verticalLabelPosition=bottom;html=1;verticalAlign=top;aspect=fixed;align=center;pointerEvents=1;shape=mxgraph.cisco19.rect;prIcon=router_with_firewall;fillColor=#FAFAFA;strokeColor=#005073;" parent="1" vertex="1">
          <mxGeometry x="420" y="280" width="80" height="80" as="geometry" />
        </mxCell>
        <mxCell id="FalNXXirumsoLyD_bCAX-13" style="edgeStyle=orthogonalEdgeStyle;rounded=0;orthogonalLoop=1;jettySize=auto;html=1;exitX=1;exitY=0.15;exitDx=0;exitDy=0;exitPerimeter=0;strokeColor=#0066CC;startArrow=classic;startFill=1;" parent="1" source="FalNXXirumsoLyD_bCAX-5" edge="1">
          <mxGeometry relative="1" as="geometry">
            <mxPoint x="389" y="53" as="targetPoint" />
          </mxGeometry>
        </mxCell>
        <mxCell id="FalNXXirumsoLyD_bCAX-18" style="edgeStyle=orthogonalEdgeStyle;rounded=0;orthogonalLoop=1;jettySize=auto;html=1;exitX=0;exitY=0.15;exitDx=0;exitDy=0;exitPerimeter=0;strokeColor=#FF8000;startArrow=classic;startFill=1;" parent="1" source="FalNXXirumsoLyD_bCAX-5" edge="1">
          <mxGeometry relative="1" as="geometry">
            <mxPoint x="270" y="93" as="targetPoint" />
          </mxGeometry>
        </mxCell>
        <mxCell id="FalNXXirumsoLyD_bCAX-16" style="edgeStyle=orthogonalEdgeStyle;rounded=0;orthogonalLoop=1;jettySize=auto;html=1;exitX=1;exitY=0.15;exitDx=0;exitDy=0;exitPerimeter=0;startArrow=classic;startFill=1;strokeColor=#0066CC;" parent="1" source="FalNXXirumsoLyD_bCAX-6" edge="1">
          <mxGeometry relative="1" as="geometry">
            <mxPoint x="630" y="50" as="targetPoint" />
          </mxGeometry>
        </mxCell>
        <mxCell id="FalNXXirumsoLyD_bCAX-17" style="edgeStyle=orthogonalEdgeStyle;rounded=0;orthogonalLoop=1;jettySize=auto;html=1;exitX=0;exitY=0.15;exitDx=0;exitDy=0;exitPerimeter=0;strokeColor=#FF8000;startArrow=classic;startFill=1;" parent="1" source="FalNXXirumsoLyD_bCAX-6" edge="1">
          <mxGeometry relative="1" as="geometry">
            <mxPoint x="510" y="93" as="targetPoint" />
          </mxGeometry>
        </mxCell>
        <mxCell id="FalNXXirumsoLyD_bCAX-7" value="" style="line;strokeWidth=4;direction=west;html=1;perimeter=backbonePerimeter;points=[];outlineConnect=0;strokeColor=#0066CC;" parent="1" vertex="1">
          <mxGeometry x="-120" y="40" width="920" height="20" as="geometry" />
        </mxCell>
        <mxCell id="FalNXXirumsoLyD_bCAX-8" value="" style="line;strokeWidth=4;direction=west;html=1;perimeter=backbonePerimeter;points=[];outlineConnect=0;strokeColor=#FF8000;" parent="1" vertex="1">
          <mxGeometry x="-120" y="80" width="920" height="20" as="geometry" />
        </mxCell>
        <mxCell id="FalNXXirumsoLyD_bCAX-19" value="" style="line;strokeWidth=4;direction=west;html=1;perimeter=backbonePerimeter;points=[];outlineConnect=0;strokeColor=#00CC00;" parent="1" vertex="1">
          <mxGeometry x="-120" y="410" width="920" height="20" as="geometry" />
        </mxCell>
        <mxCell id="FalNXXirumsoLyD_bCAX-22" value="" style="group" parent="1" vertex="1" connectable="0">
          <mxGeometry x="290" y="160" width="80" height="120" as="geometry" />
        </mxCell>
        <mxCell id="FalNXXirumsoLyD_bCAX-5" value="" style="fontColor=#0066CC;verticalAlign=top;verticalLabelPosition=bottom;labelPosition=center;align=center;html=1;outlineConnect=0;fillColor=#CCCCCC;strokeColor=#6881B3;gradientColor=none;gradientDirection=north;strokeWidth=2;shape=mxgraph.networks.server;" parent="FalNXXirumsoLyD_bCAX-22" vertex="1">
          <mxGeometry y="30" width="80" height="90" as="geometry" />
        </mxCell>
        <mxCell id="FalNXXirumsoLyD_bCAX-21" value="Network&lt;br&gt;Node" style="text;html=1;strokeColor=none;fillColor=none;align=center;verticalAlign=middle;whiteSpace=wrap;rounded=0;" parent="FalNXXirumsoLyD_bCAX-22" vertex="1">
          <mxGeometry y="-20" width="80" height="50" as="geometry" />
        </mxCell>
        <mxCell id="FalNXXirumsoLyD_bCAX-24" value="" style="group" parent="1" vertex="1" connectable="0">
          <mxGeometry x="530" y="130" width="80" height="150" as="geometry" />
        </mxCell>
        <mxCell id="FalNXXirumsoLyD_bCAX-6" value="" style="fontColor=#0066CC;verticalAlign=top;verticalLabelPosition=bottom;labelPosition=center;align=center;html=1;outlineConnect=0;fillColor=#CCCCCC;strokeColor=#6881B3;gradientColor=none;gradientDirection=north;strokeWidth=2;shape=mxgraph.networks.server;" parent="FalNXXirumsoLyD_bCAX-24" vertex="1">
          <mxGeometry y="60" width="80" height="90" as="geometry" />
        </mxCell>
        <mxCell id="FalNXXirumsoLyD_bCAX-23" value="Compute&lt;br&gt;Node" style="text;html=1;strokeColor=none;fillColor=none;align=center;verticalAlign=middle;whiteSpace=wrap;rounded=0;" parent="FalNXXirumsoLyD_bCAX-24" vertex="1">
          <mxGeometry y="20" width="80" height="40" as="geometry" />
        </mxCell>
        <mxCell id="FalNXXirumsoLyD_bCAX-25" value="" style="group" parent="1" vertex="1" connectable="0">
          <mxGeometry x="800" y="80" width="130" height="30" as="geometry" />
        </mxCell>
        <mxCell id="FalNXXirumsoLyD_bCAX-26" value="" style="sketch=0;pointerEvents=1;shadow=0;dashed=0;html=1;strokeColor=none;fillColor=#FF8000;labelPosition=center;verticalLabelPosition=bottom;verticalAlign=top;align=center;outlineConnect=0;shape=mxgraph.veeam2.tag;" parent="FalNXXirumsoLyD_bCAX-25" vertex="1">
          <mxGeometry width="32.5" height="30" as="geometry" />
        </mxCell>
        <mxCell id="FalNXXirumsoLyD_bCAX-27" value="&lt;font color=&quot;#ff8000&quot;&gt;API/management network&lt;/font&gt;" style="text;html=1;strokeColor=none;fillColor=none;align=center;verticalAlign=middle;whiteSpace=wrap;rounded=0;" parent="FalNXXirumsoLyD_bCAX-25" vertex="1">
          <mxGeometry x="32.5" width="97.5" height="30" as="geometry" />
        </mxCell>
        <mxCell id="FalNXXirumsoLyD_bCAX-28" value="" style="group" parent="1" vertex="1" connectable="0">
          <mxGeometry x="800" y="40" width="130" height="30" as="geometry" />
        </mxCell>
        <mxCell id="FalNXXirumsoLyD_bCAX-29" value="" style="sketch=0;pointerEvents=1;shadow=0;dashed=0;html=1;strokeColor=none;fillColor=#0066CC;labelPosition=center;verticalLabelPosition=bottom;verticalAlign=top;align=center;outlineConnect=0;shape=mxgraph.veeam2.tag;" parent="FalNXXirumsoLyD_bCAX-28" vertex="1">
          <mxGeometry width="32.5" height="30" as="geometry" />
        </mxCell>
        <mxCell id="FalNXXirumsoLyD_bCAX-30" value="&lt;font color=&quot;#0066cc&quot;&gt;VM traffic network&lt;/font&gt;" style="text;html=1;strokeColor=none;fillColor=none;align=center;verticalAlign=middle;whiteSpace=wrap;rounded=0;" parent="FalNXXirumsoLyD_bCAX-28" vertex="1">
          <mxGeometry x="32.5" width="97.5" height="30" as="geometry" />
        </mxCell>
        <mxCell id="FalNXXirumsoLyD_bCAX-31" value="" style="group" parent="1" vertex="1" connectable="0">
          <mxGeometry x="-80" y="147" width="110" height="140" as="geometry" />
        </mxCell>
        <mxCell id="FalNXXirumsoLyD_bCAX-40" style="edgeStyle=orthogonalEdgeStyle;rounded=0;orthogonalLoop=1;jettySize=auto;html=1;exitX=1;exitY=0.25;exitDx=0;exitDy=0;startArrow=classic;startFill=1;strokeColor=#0066CC;" parent="FalNXXirumsoLyD_bCAX-31" source="FalNXXirumsoLyD_bCAX-33" edge="1">
          <mxGeometry relative="1" as="geometry">
            <mxPoint x="130" y="-96" as="targetPoint" />
          </mxGeometry>
        </mxCell>
        <mxCell id="FalNXXirumsoLyD_bCAX-41" style="edgeStyle=orthogonalEdgeStyle;rounded=0;orthogonalLoop=1;jettySize=auto;html=1;exitX=0;exitY=0.25;exitDx=0;exitDy=0;strokeColor=#FF8000;startArrow=classic;startFill=1;" parent="FalNXXirumsoLyD_bCAX-31" source="FalNXXirumsoLyD_bCAX-33" edge="1">
          <mxGeometry relative="1" as="geometry">
            <mxPoint x="-20" y="-56" as="targetPoint" />
          </mxGeometry>
        </mxCell>
        <mxCell id="kHiq2sOtPYupNDaNJh_B-6" style="edgeStyle=orthogonalEdgeStyle;rounded=0;orthogonalLoop=1;jettySize=auto;html=1;exitX=0.5;exitY=1;exitDx=0;exitDy=0;strokeColor=#00CC00;startArrow=classic;startFill=1;" parent="FalNXXirumsoLyD_bCAX-31" source="FalNXXirumsoLyD_bCAX-33" edge="1">
          <mxGeometry relative="1" as="geometry">
            <mxPoint x="55" y="270" as="targetPoint" />
          </mxGeometry>
        </mxCell>
        <mxCell id="FalNXXirumsoLyD_bCAX-33" value="" style="whiteSpace=wrap;html=1;aspect=fixed;dashed=1;dashPattern=12 12;rounded=1;" parent="FalNXXirumsoLyD_bCAX-31" vertex="1">
          <mxGeometry y="30" width="110" height="110" as="geometry" />
        </mxCell>
        <mxCell id="FalNXXirumsoLyD_bCAX-34" value="Deployment&lt;br&gt;Node" style="text;html=1;strokeColor=none;fillColor=none;align=center;verticalAlign=middle;whiteSpace=wrap;rounded=0;" parent="FalNXXirumsoLyD_bCAX-31" vertex="1">
          <mxGeometry y="-10" width="110" height="40" as="geometry" />
        </mxCell>
        <mxCell id="FalNXXirumsoLyD_bCAX-35" value="" style="image;aspect=fixed;perimeter=ellipsePerimeter;html=1;align=center;shadow=0;dashed=0;fontColor=#4277BB;labelBackgroundColor=default;fontSize=12;spacingTop=3;image=img/lib/ibm/devops/continuous_deploy.svg;" parent="FalNXXirumsoLyD_bCAX-31" vertex="1">
          <mxGeometry x="25" y="40" width="60" height="60" as="geometry" />
        </mxCell>
        <mxCell id="FalNXXirumsoLyD_bCAX-37" value="&lt;font color=&quot;#ff8000&quot;&gt;Kolla-ansible&lt;/font&gt;" style="text;html=1;strokeColor=none;fillColor=none;align=center;verticalAlign=middle;whiteSpace=wrap;rounded=0;" parent="FalNXXirumsoLyD_bCAX-31" vertex="1">
          <mxGeometry y="100" width="110" height="30" as="geometry" />
        </mxCell>
        <mxCell id="FalNXXirumsoLyD_bCAX-44" value="" style="group" parent="1" vertex="1" connectable="0">
          <mxGeometry x="800" y="410" width="130" height="30" as="geometry" />
        </mxCell>
        <mxCell id="FalNXXirumsoLyD_bCAX-45" value="" style="sketch=0;pointerEvents=1;shadow=0;dashed=0;html=1;strokeColor=none;fillColor=#00CC00;labelPosition=center;verticalLabelPosition=bottom;verticalAlign=top;align=center;outlineConnect=0;shape=mxgraph.veeam2.tag;" parent="FalNXXirumsoLyD_bCAX-44" vertex="1">
          <mxGeometry width="32.5" height="30" as="geometry" />
        </mxCell>
        <mxCell id="FalNXXirumsoLyD_bCAX-46" value="&lt;font color=&quot;#00cc00&quot;&gt;Provider network&lt;/font&gt;" style="text;html=1;strokeColor=none;fillColor=none;align=center;verticalAlign=middle;whiteSpace=wrap;rounded=0;" parent="FalNXXirumsoLyD_bCAX-44" vertex="1">
          <mxGeometry x="32.5" width="97.5" height="30" as="geometry" />
        </mxCell>
        <mxCell id="FalNXXirumsoLyD_bCAX-51" value="" style="group" parent="1" vertex="1" connectable="0">
          <mxGeometry x="160" y="330" width="130" height="30" as="geometry" />
        </mxCell>
        <mxCell id="FalNXXirumsoLyD_bCAX-48" value="" style="sketch=0;pointerEvents=1;shadow=0;dashed=0;html=1;strokeColor=#A50040;fillColor=#D80073;labelPosition=center;verticalLabelPosition=bottom;verticalAlign=top;align=center;outlineConnect=0;shape=mxgraph.veeam2.tag;fontColor=#ffffff;" parent="FalNXXirumsoLyD_bCAX-51" vertex="1">
          <mxGeometry x="97.5" width="32.5" height="30" as="geometry" />
        </mxCell>
        <mxCell id="FalNXXirumsoLyD_bCAX-50" value="&lt;font color=&quot;#d80073&quot;&gt;neutron interface network&lt;/font&gt;" style="text;html=1;strokeColor=none;fillColor=none;align=center;verticalAlign=middle;whiteSpace=wrap;rounded=0;" parent="FalNXXirumsoLyD_bCAX-51" vertex="1">
          <mxGeometry width="97.5" height="30" as="geometry" />
        </mxCell>
        <mxCell id="FalNXXirumsoLyD_bCAX-52" value="" style="line;strokeWidth=4;direction=west;html=1;perimeter=backbonePerimeter;points=[];outlineConnect=0;strokeColor=#D80073;fillColor=#D80073;fontColor=#ffffff;" parent="1" vertex="1">
          <mxGeometry x="290" y="330" width="80" height="20" as="geometry" />
        </mxCell>
        <mxCell id="FalNXXirumsoLyD_bCAX-56" style="edgeStyle=orthogonalEdgeStyle;rounded=0;orthogonalLoop=1;jettySize=auto;html=1;exitX=0.5;exitY=1;exitDx=0;exitDy=0;exitPerimeter=0;strokeColor=#D80073;startArrow=classic;startFill=1;" parent="1" source="FalNXXirumsoLyD_bCAX-5" target="FalNXXirumsoLyD_bCAX-52" edge="1">
          <mxGeometry relative="1" as="geometry" />
        </mxCell>
        <mxCell id="FalNXXirumsoLyD_bCAX-57" value="Router&lt;br&gt;with&lt;br&gt;firewall" style="text;html=1;strokeColor=none;fillColor=none;align=center;verticalAlign=middle;whiteSpace=wrap;rounded=0;" parent="1" vertex="1">
          <mxGeometry x="500" y="295" width="60" height="50" as="geometry" />
        </mxCell>
        <mxCell id="kHiq2sOtPYupNDaNJh_B-2" style="edgeStyle=orthogonalEdgeStyle;rounded=0;orthogonalLoop=1;jettySize=auto;html=1;exitX=0;exitY=0.15;exitDx=0;exitDy=0;exitPerimeter=0;strokeColor=#FF8000;startArrow=classic;startFill=1;" parent="1" source="kHiq2sOtPYupNDaNJh_B-4" edge="1">
          <mxGeometry relative="1" as="geometry">
            <mxPoint x="100" y="93" as="targetPoint" />
          </mxGeometry>
        </mxCell>
        <mxCell id="kHiq2sOtPYupNDaNJh_B-3" value="" style="group" parent="1" vertex="1" connectable="0">
          <mxGeometry x="120" y="130" width="80" height="150" as="geometry" />
        </mxCell>
        <mxCell id="kHiq2sOtPYupNDaNJh_B-4" value="" style="fontColor=#0066CC;verticalAlign=top;verticalLabelPosition=bottom;labelPosition=center;align=center;html=1;outlineConnect=0;fillColor=#CCCCCC;strokeColor=#6881B3;gradientColor=none;gradientDirection=north;strokeWidth=2;shape=mxgraph.networks.server;" parent="kHiq2sOtPYupNDaNJh_B-3" vertex="1">
          <mxGeometry y="60" width="80" height="90" as="geometry" />
        </mxCell>
        <mxCell id="kHiq2sOtPYupNDaNJh_B-5" value="Cloud&lt;br&gt;Controller&lt;br&gt;Node" style="text;html=1;strokeColor=none;fillColor=none;align=center;verticalAlign=middle;whiteSpace=wrap;rounded=0;" parent="kHiq2sOtPYupNDaNJh_B-3" vertex="1">
          <mxGeometry y="10" width="80" height="50" as="geometry" />
        </mxCell>
        <mxCell id="srqwMqWw05l5SrK2118c-1" style="edgeStyle=orthogonalEdgeStyle;rounded=0;orthogonalLoop=1;jettySize=auto;html=1;exitX=1;exitY=0.15;exitDx=0;exitDy=0;exitPerimeter=0;startArrow=classic;startFill=1;strokeColor=#0066CC;" edge="1" parent="1" source="srqwMqWw05l5SrK2118c-4">
          <mxGeometry relative="1" as="geometry">
            <mxPoint x="770" y="50" as="targetPoint" />
          </mxGeometry>
        </mxCell>
        <mxCell id="srqwMqWw05l5SrK2118c-2" style="edgeStyle=orthogonalEdgeStyle;rounded=0;orthogonalLoop=1;jettySize=auto;html=1;exitX=0;exitY=0.15;exitDx=0;exitDy=0;exitPerimeter=0;strokeColor=#FF8000;startArrow=classic;startFill=1;" edge="1" parent="1" source="srqwMqWw05l5SrK2118c-4">
          <mxGeometry relative="1" as="geometry">
            <mxPoint x="650" y="93" as="targetPoint" />
          </mxGeometry>
        </mxCell>
        <mxCell id="srqwMqWw05l5SrK2118c-3" value="" style="group" vertex="1" connectable="0" parent="1">
          <mxGeometry x="670" y="130" width="80" height="150" as="geometry" />
        </mxCell>
        <mxCell id="srqwMqWw05l5SrK2118c-4" value="" style="fontColor=#0066CC;verticalAlign=top;verticalLabelPosition=bottom;labelPosition=center;align=center;html=1;outlineConnect=0;fillColor=#CCCCCC;strokeColor=#6881B3;gradientColor=none;gradientDirection=north;strokeWidth=2;shape=mxgraph.networks.server;" vertex="1" parent="srqwMqWw05l5SrK2118c-3">
          <mxGeometry y="60" width="80" height="90" as="geometry" />
        </mxCell>
        <mxCell id="srqwMqWw05l5SrK2118c-5" value="Storage&lt;br&gt;Node" style="text;html=1;strokeColor=none;fillColor=none;align=center;verticalAlign=middle;whiteSpace=wrap;rounded=0;" vertex="1" parent="srqwMqWw05l5SrK2118c-3">
          <mxGeometry y="20" width="80" height="40" as="geometry" />
        </mxCell>
      </root>
    </mxGraphModel>
  </diagram>
</mxfile>
